…
## 3. Count contacts by current employer

``` r
connections %>% 
  count(Company) %>% 
  arrange(-n)
```

    ## # A tibble: 1,078 × 2
    ##    Company                                                 n
    ##    <chr>                                               <int>
    ##  1 Sollio Agriculture                                     40
    ##  2 <NA>                                                   28
    ##  3 Syngenta                                               14
    ##  4 La Coop fédérée                                        10
    ##  5 McGill University - Desautels Faculty of Management     7
    ##  6 BOMBARDIER                                              6
    ##  7 EY                                                      6
    ##  8 InVivo                                                  5
    ##  9 Nutrien                                                 5
    ## 10 SGS                                                     5
    ## # … with 1,068 more rows
…
