…
## Select subgroups

``` r
group1 = applications[substr(applications$examiner_art_unit, 1,3)==164,]
group2 = applications[substr(applications$examiner_art_unit, 1,3)==173,]

group1
```

    ## # A tibble: 93,342 × 16
    ##    application_number filing_date examiner_name_last examiner_name_first
    ##    <chr>              <date>      <chr>              <chr>              
    ##  1 08637752           2001-07-20  MOSHER             MARY               
    ##  2 08765941           2000-06-23  FORD               VANESSA            
    ##  3 08901519           2000-09-26  DENT               ALANA              
    ##  4 09000004           2001-05-02  SAUNDERS           DAVID              
    ##  5 09011027           2000-05-01  LANDSMAN           ROBERT             
    ##  6 09077252           2000-05-20  PADMANABHAN        KARTIC             
    ##  7 09077740           2000-01-12  NOLAN              PATRICK            
    ##  8 09091815           2000-04-13  NICKOL             GARY               
    ##  9 09117087           2000-07-28  SALIMI             ALI                
    ## 10 09129758           2010-09-15  PAK                MICHAEL            
    ## # … with 93,332 more rows, and 12 more variables: examiner_name_middle <chr>,
    ## #   examiner_id <dbl>, examiner_art_unit <dbl>, uspc_class <chr>,
    ## #   uspc_subclass <chr>, patent_number <chr>, patent_issue_date <date>,
    ## #   abandon_date <date>, disposal_type <chr>, appl_status_code <dbl>,
    ## #   appl_status_date <chr>, tc <dbl>
…
    ##            used  (Mb) gc trigger  (Mb) max used  (Mb)
    ## Ncells  4791171 255.9    8512654 454.7  5122365 273.6
    ## Vcells 55182554 421.1   97379206 743.0 87511352 667.7

## Add race

``` r
examiner_surnames <- bind %>% 
  select(surname = examiner_name_last) %>% 
  distinct()
examiner_surnames
```

    ## # A tibble: 388 × 1
    ##    surname    
    ##    <chr>      
    ##  1 MOSHER     
    ##  2 FORD       
    ##  3 DENT       
    ##  4 SAUNDERS   
    ##  5 LANDSMAN   
    ##  6 PADMANABHAN
    ##  7 NOLAN      
    ##  8 NICKOL     
    ##  9 SALIMI     
    ## 10 PAK        
    ## # … with 378 more rows
``` r
examiner_race <- predict_race(voter.file = examiner_surnames, surname.only = T) %>% 
  as_tibble()
```

    ## [1] "Proceeding with surname-only predictions..."

    ## Warning in merge_surnames(voter.file): Probabilities were imputed for 48
    ## surnames that could not be matched to Census list.

``` r
examiner_race
```

    ## # A tibble: 388 × 6
    ##    surname     pred.whi pred.bla pred.his pred.asi pred.oth
    ##    <chr>          <dbl>    <dbl>    <dbl>    <dbl>    <dbl>
    ##  1 MOSHER        0.947  0.00410    0.0241  0.00640  0.0185 
    ##  2 FORD          0.620  0.32       0.0237  0.0045   0.0313 
    ##  3 DENT          0.574  0.374      0.02    0.0052   0.0262 
    ##  4 SAUNDERS      0.674  0.261      0.0262  0.00570  0.0329 
    ##  5 LANDSMAN      0.944  0.0161     0.0185  0.00525  0.0165 
    ##  6 PADMANABHAN   0.0225 0.000600   0.01    0.95     0.0169 
    ##  7 NOLAN         0.868  0.0744     0.0291  0.0058   0.0222 
    ##  8 NICKOL        0.964  0.0089     0.0143  0.00417  0.00833
    ##  9 SALIMI        0.730  0          0.041   0.0964   0.132  
    ## 10 PAK           0.0378 0.00110    0.0088  0.920    0.0321 
    ## # … with 378 more rows
…
``` r
examiner_race <- examiner_race %>% 
  mutate(max_race_p = pmax(pred.asi, pred.bla, pred.his, pred.oth, pred.whi)) %>% 
  mutate(race = case_when(
    max_race_p == pred.asi ~ "Asian",
    max_race_p == pred.bla ~ "black",
    max_race_p == pred.his ~ "Hispanic",
    max_race_p == pred.oth ~ "other",
    max_race_p == pred.whi ~ "white",
    TRUE ~ NA_character_
  ))
examiner_race
```

    ## # A tibble: 388 × 8
    ##    surname     pred.whi pred.bla pred.his pred.asi pred.oth max_race_p race 
    ##    <chr>          <dbl>    <dbl>    <dbl>    <dbl>    <dbl>      <dbl> <chr>
    ##  1 MOSHER        0.947  0.00410    0.0241  0.00640  0.0185       0.947 white
    ##  2 FORD          0.620  0.32       0.0237  0.0045   0.0313       0.620 white
    ##  3 DENT          0.574  0.374      0.02    0.0052   0.0262       0.574 white
    ##  4 SAUNDERS      0.674  0.261      0.0262  0.00570  0.0329       0.674 white
    ##  5 LANDSMAN      0.944  0.0161     0.0185  0.00525  0.0165       0.944 white
    ##  6 PADMANABHAN   0.0225 0.000600   0.01    0.95     0.0169       0.95  Asian
    ##  7 NOLAN         0.868  0.0744     0.0291  0.0058   0.0222       0.868 white
    ##  8 NICKOL        0.964  0.0089     0.0143  0.00417  0.00833      0.964 white
    ##  9 SALIMI        0.730  0          0.041   0.0964   0.132        0.730 white
    ## 10 PAK           0.0378 0.00110    0.0088  0.920    0.0321       0.920 Asian
    ## # … with 378 more rows
…
